Group.4,2008,2009,2010,2011,2012,2013,2014,2015,2016,2017,2018,2019,2020,2021,2022,2023
13,60.5888866883117,163.088969970449,341.368507517483,212.982994030969,153.203602819901,221.698029345309,188.334748591753,140.039889985275,147.896839058307,188.98758653549,185.830804173608,226.412828686636,99.6535518362091,245.289656683456,144.201009549473,54.8102485574902
27,51.9645681818182,256.74716025641,231.991009615385,173.965519230769,1598.15018540724,592.439913461538,1346.49572375326,1272.29739291506,550.6652746075,1981.3726035408,1545.95551511068,658.673062437562,743.141805860806,2312.78023655961,554.596992167392,33.1031562026283
90,531.180231143856,874.114134757469,718.373752272727,775.598942716155,881.829134417079,860.416003012636,932.583786175434,858.898467833431,954.001697322905,1020.66053716787,867.373619382425,868.440720146789,1151.42748930799,790.819784961593,881.386086394823,543.929017964467
91,89.3469220154845,148.829699297071,153.153849213287,140.178584509845,157.539949753465,155.749037158234,126.302657360133,159.172483375387,168.633299339827,109.752202163692,84.8477571252255,86.5390147803809,51.3693005468335,80.3038959321237,98.4049927787037,43.3395640771336
150,117.57889965035,142.570874411795,34.0389072115385,595.291313422868,8050.66255207721,390.725183972041,114.526241784629,523.754649939801,1419.64643593433,1633.07443213813,2495.50309199125,514.572177647353,1763.84795159148,1166.72550618828,1066.10476809164,869.770980142025
187,455.457583479021,2742.16835029584,3743.92771494755,2679.67052306605,802.467508385983,395.514415672356,170.67943846819,543.016745906026,37.4473380700003,819.669136561144,241.577645412371,133.050997180642,127.505924836363,1397.71277073611,199.634389785366,77.2511929781256
193,0.876620854145854,0.159759615384615,0.4974,0.015,0.38,8.58630224269046,0.495163461538462,2.05749171267381,2.18019615384615,5.1092287541406,9.12644017877127,3.25167402597402,11.9796717548077,18.6205360227167,17.0557198304033,128.88789409639
272,0.0128431818181818,0.262168726611817,0.02760625,0.604538336663337,1.05043866099071,0.360343269230769,0.531147033898305,3.67445018216056,1.49789175824176,1.89597692307692,0.391827732216402,0.691770017482518,0.846782424228997,0.393788399242501,1.31290939880135,0.639479065130705
320,23.1069084415584,69.9444033548775,15.6277980769231,21.8138131139022,14.5394545034633,20.2484524448077,26.4273848644091,34.4348959454239,43.1249156670605,14.910463003801,10.4232418162562,4.1602466471029,7.21794630413798,8.36181754291263,11.2477420085033,2.3311224704882
438,1330.64911226274,2524.53920572358,1738.07857272727,2410.36971132255,3735.26885853269,2608.2199488383,6059.4579127416,5000.26327393413,6296.31166389647,2689.03449586477,3380.31236361185,1579.13664747349,3516.23996131423,7489.32121288529,4095.60934449036,844.161587717656
444,141.669023295455,60.3394850844702,13.1657375,39.3988283216783,53.1075134615385,30.9861121213784,34.0963130948501,64.3062244228153,37.5601869047619,85.2019417964835,136.292492943473,85.1803093156843,66.4830196766439,77.2268348228269,46.8895715959808,15.2603701350019
447,176.033637987013,321.718080036519,156.495263111888,360.169873726274,227.26855130502,253.998789575614,310.051990872529,668.536871607032,400.926939047818,437.878031160389,267.848647122762,354.746477478167,295.730742536034,377.902208423266,289.966005803981,105.210828723399
449,1.7724375,10.048486687764,7.7031409965035,39.7128989385614,23.272462928412,107.521055702534,52.8155997494953,35.866999786495,16.2931312360456,33.7518276009611,40.1192852258216,31.7239811174712,16.7459138048612,40.5969997829669,101.12462233144,74.263275403473
451,0.3657,1.66250820414525,2.77575157342657,1.70692797202797,0.292875,0.65822704968348,3.96753390614378,2.98045253353017,0.891614530650073,1.35083158086269,7.62531572001598,1.77032727272727,3.74013800254557,2.05915339110399,4.63104545454545,0.0710212320574162
461,29.7355845779221,50.6499905754238,67.0357105769231,71.845460578333,64.3464528756927,99.7261818758513,89.7144395772084,73.7398494119365,54.03069168955,44.8445233893794,49.2518730006013,37.0975856450002,43.6767263271666,45.228472461371,38.5800010682438,13.5124701104249
478,54.3651643668831,78.05804121565,65.6778403846154,71.9025844888982,84.108177989174,37.5671967836016,41.4832542554393,54.6237516968338,73.9282757384742,83.949330251594,75.5973900239661,68.4616621378621,106.087795385439,104.01199438881,118.162757938524,34.120895453259
572,5.5705,0.5325125,0.11565625,0.277376923076923,0.5132,0.0410576923076924,0.530564940460876,3.84531057636396,2.6225946969697,5.03747806077803,3.536929875241,2.26106783216783,11.1950580895355,0.990160626611159,10.3506427652672,2.85390886225794
696,0.0305625,0.00616214574898786,,0.0503038461538462,0.0700816664952694,0.690634890384763,3.78742911644609,0.110376787829839,0.0532446633938351,0.0154612845202742,0.0626901466383799,0.0653363636363636,0.0721417410714286,4.39461648714946,0.159782158141708,0.0400457268602398
700,28.8925600274725,57.587377702406,64.7315381555944,66.1090733806516,83.9299586538462,54.8239065092943,150.121021153846,78.2100305524488,70.0233048866141,123.217979148148,83.7110330249888,43.1197755244755,86.9531190956221,140.161749567212,193.328507111974,102.004816449525
711,2.96075,3.60245604434093,20.9680523601399,10.1279821057974,18.625979655514,8.86980379323238,4.78901135442947,8.04225286273529,6.56260955008095,5.90494653921257,6.26541685154284,5.6261597902098,4.10846027440302,7.13796694710527,4.20485054144481,2.85921028063249
716,7.39368465909091,21.443584098975,13.3896180944056,27.7849258741259,23.3463277012726,18.8187478148762,20.8819456175093,8.76895051836104,7.03650855776429,8.84441306589842,8.13841501926002,3.76586236747124,5.7883145578673,10.7068116954051,3.76207928730519,0.950000337965124
717,1.868325,23.3353965902345,4.93555236013986,6.96267060439561,6.21184949613589,3.01304949377536,12.5189907943774,8.63119869644836,2.12607464816539,2.0250594576138,5.0850988094434,5.3551277972028,2.97321569373167,6.97805218028556,0.622527752386305,0.289488118122141
728,10.4767869318182,20.6845594717648,33.3047840909091,41.8495924825175,42.6500391623594,20.4249478861789,13.3351268005774,40.7597325959147,7.92194334668061,12.6760361625999,15.4045367744436,14.8225513986014,7.74786227678572,23.903772240647,34.5718956790239,18.8424771980979
730,29.9772795454545,40.4029242031571,57.4462568618881,48.7805121878122,43.2624654885484,59.5002121139224,41.0099612098452,39.2366695024926,40.5948087220873,23.2543060052958,25.0078177209082,13.7910043015452,4.46844375,18.2298872087013,25.4335330241811,2.34795682633308
745,3.08312954545455,8.18535526287221,7.00339951923077,8.11487583041958,4.64994451506311,6.08063431259807,6.21570263096241,2.40155891047414,1.06113550102461,0.837138871190856,1.27593075821429,0.575186363636364,0.788976102724099,1.64490337552109,3.82780071814348,0.232733689256786
792,4387.20499675325,1857.51992916187,2261.41741451049,2037.88719211192,2938.05623494916,6422.44345349313,12175.99637751,22076.1675327739,57639.7969916994,87165.6568360365,102868.677911886,122140.42616062,85816.6445484597,82626.1627761495,90808.2229968157,57758.8908522983
811,0.608659615384615,0.822338643632263,1.01173990384615,1.11872161064742,3.2840375,0.704807299790657,1.21797838638057,0.642860885388958,0.961914294415239,0.53936466153924,0.999080601759649,0.875234090909091,1.23595332203079,1.21098734504317,0.487334626871243,0.510468085839015
812,0.0939662337662338,2.29020326691381,1.13295524475524,1.10489628496504,1.70485191592231,1.4816715034965,0.372473093220339,0.497936643197522,0.0960795814479639,0.142824193548387,0.410664088170865,0.217812937062937,0.35750437933359,0.0249921313980138,0.594702380952381,0.049935064935065
814,9.05427561188811,37.1647701274299,25.1907878496504,24.7130580540427,31.8012988285369,6.25603663216894,14.6496641625677,14.8924679846543,7.63292501387619,20.2243795300972,19.0881435531312,36.0511146853147,16.4966058981247,21.8624969504742,19.263715302136,3.1410115478468
819,39.3645,53.6331004316756,46.2633519230769,60.0279311132416,68.4176926110035,29.7882476293104,152.492110593139,90.7226051942072,94.1209306146871,58.1103479902767,34.7779957651638,59.9248232573878,45.7629344957214,56.8360023295757,34.066075098375,13.9323275846276
823,11.9253,19.5291109994173,13.8691887237762,7.51080746753247,29.413397888841,3.0567288396985,8.45731046928817,31.8961162860746,4.16878491464241,3.42596851980479,11.6532656087637,8.52715472027972,6.37357244737562,13.3694762210012,30.1634953300669,1.23849472402597
832,0.4065,0.242271915381842,0.728964685314685,0.570225,0.46520625,0.255996508097166,0.309823411016949,0.327863993350892,0.294990687382963,0.0133678152492669,0.358779924242424,0.223065909090909,0.140946875,0.15735213354333,0.106048873016545,
836,2.656,5.82998689254791,11.0735658216783,8.02300544455544,8.71764175814949,3.8067501959341,12.4295164574838,2.70572951959697,6.25360564839836,7.95460265651126,3.30140865489932,4.39088233701782,5.94943991477273,4.42965124325186,2.04326512957763,0.204352272727273
838,0.423494318181818,1.72998737231551,0.840372596153846,1.48645927076955,1.75996362608957,0.588522035849798,0.803485265614557,1.96441106650192,0.266739422423422,0.751416843328592,1.24827096185129,0.987064989848861,0.343215368900168,0.531454203862654,0.330957894349475,0.0547817155138607
847,2.18560113636364,4.6837094476652,3.29162486888112,3.22720908970062,3.34794322974473,1.07930182186235,4.54589079237481,8.86216482759165,,,9.361464020288,4.78537762237762,6.0288099184082,3.90455289063766,5.67727575308628,0.65771397005772
849,9.58064545454545,9.45809455128205,19.7750659090909,19.4301643793706,6.99689459779678,12.7616139999062,21.3201853554102,38.8551131369727,54.9075894630887,56.9499301003616,35.7433369595824,32.1561712158809,64.5965264235765,47.649083459438,50.2172667717198,1.07495391705069
865,0.1176,0.551299670087977,0.696392307692308,0.902183916083916,0.509421953458783,0.239659750176294,0.388060972448659,0.408153821707953,0.103877373902389,0.333900186989638,0.287172100498769,0.3197,0.2426671875,0.630455013736264,1.00536382536383,0.250255898366606
868,6.1308,2.9797,42.5551306818181,3.27362404692082,8.50254410815581,0.683232143295301,2.99832607178465,2.27619818834675,,,1.30273332864953,3.19564248251748,1.91657703919492,0.700287144362486,3.15315519642164,0.34387315270936
889,337.692285726773,940.035272116405,738.35457111014,1285.82575634607,1260.93001958013,847.587818784447,829.215581346138,1096.16823737911,1057.36229360176,1093.89242363967,1347.22623485382,856.890319710129,1189.2510318855,1305.84537655643,1271.60133984671,534.398089499203
890,190.249749025974,305.970436596421,356.659720979021,423.947820660992,519.896916650306,530.153593456448,470.380708284771,392.87465082151,488.307565841404,577.780228494746,709.207201389289,673.621122477523,589.640313357956,456.897224887115,1404.96055989313,520.643446918383
892,2680.40118601399,3795.57517818265,4021.9411763549,4469.48378458155,4729.53866218195,2965.57258908082,4282.56545652912,4310.15208689732,4211.23634195708,3140.83276918173,2608.64809925144,2280.17100594889,3173.07053978021,3932.50210213438,2478.66553404025,1074.62478882621
893,152.36875,358.97305739401,371.063084615385,359.256895604396,346.622889526643,328.325300892315,683.206644370761,889.238898075273,826.353701370529,770.216452078218,909.988116651923,704.559970755051,677.314872224668,1419.56676230058,1204.14044715068,661.842730590345
966,12.1934,29.3519461538462,11.934375,27.1426923076923,35.62,33.9111972891566,32.8559615384616,45.8473514249305,25.8232240963855,86.1468983021216,85.0181769369367,62.3753090909091,70.0871785714286,85.858243970013,72.3566528809259,77.3289346949499
1101,65.9380650287213,64.0225931368744,179.169112805944,105.010505695192,165.511490322267,57.8890117806951,80.3899056246679,39.8040292958417,101.293261613653,34.2123504297814,23.5293635878489,31.0652788961039,23.8606010447582,78.3718483627771,61.3957458082003,29.8157408752147
1107,,0.0024,,,,,0.13134375,0.0927740384615385,0.389768506493507,0.379363468761783,0.82841678010566,1.35976363636364,1.05137551743807,0.567903566306332,0.319938498001002,0.56063184557654
1108,,,,0.0188590909090909,,,0.0183719035202086,0.0302373106060606,0.0086,0.087527659806741,0.0920414512743282,0.0520295454545455,0.0260395909755908,0.117551499236058,0.0220496657318203,0.0524098998505008
1109,,,,,,,0.0522813559322034,0.133836956521739,0.161379039688165,1.83800613661861,1.97752566421888,0.443474175824176,0.442315353978649,2.11814626414648,0.421827777357937,0.177122000706137
1112,,0.0659363353391382,,0.00661048951048951,0.0144268399608866,0.0013125,0.0444443761691629,0.0524922655361,0.0533863938692886,0.0768482711626069,0.0353497127749372,0.0261931818181818,0.0364465909090909,0.00277460324491242,0.0147169718326813,0.00315789473684211
1341,0.350890909090909,0.315791632982205,0.985236276223776,0.227490492007992,0.216801013986014,0.137660291106919,0.253537159818714,18.8173814601047,0.140608311270438,0.619375260432713,0.214732620272762,0.510571328671329,0.0691073379258795,0.164218330135777,0.52662710621924,0.00871785714285714
1353,0.005,0.148698211413676,0.695298076923077,0.08287,0.332855384549864,1.58522895752938,5.88768788494633,0.822234783012859,0.945833682862807,0.961503496102728,0.39588144827072,0.132818181818182,1.1097046744671,0.35191208460657,0.409279766728965,0.0105952380952381
1357,0.0054,,0.0338,0.01598,0.00299767204410864,0.00753522727272727,0.06769375,0.0528188312559788,0.00838660100778745,0.0408494841874367,0.0158470722559108,0.0321667832167832,0.0018734375,0.0450853186805968,0.0241562496375471,0.000528947368421053
2040,109.569943531469,175.1863735357,93.1758362762238,300.120221775805,210.454586678805,1.6938269519169,27.2774642034513,10.4749048564091,1.86781597193129,1.1040906779661,0.0219670454545455,0.379607142857143,0.319098397435898,2.16324714962777,0.543064739545884,2.83058301852177
2080,1.4577,12.6969227437584,17.0994230769231,25.7694013986014,9.81203939185814,107.737838806344,22.9182092032967,52.9557084420912,77.0000811523495,23.9533108496358,234.536311539576,10.3708062437562,97.6758686205018,145.951303104016,321.305648667716,16.0362838210576
2096,3.843,4.26826923076923,3.8271,5.16561538461538,1.84151590909091,95.3385707004416,141.208855656049,162.191251906968,161.677011842715,162.071858401625,68.1399539282665,70.3559829545455,61.5766121653329,42.4128331526158,58.7618467390367,30.2033983196477
2150,0.19581875,0.970161009944678,1.1916875,0.131016433566434,2.07619845252639,,0.00980625,,,0.712114561148565,0.501848893065592,0.322048387096774,0.887827509083658,0.412228699343253,0.861005963820845,0.251674090650723
2157,0.0356,0.101590711962807,,0.0042,0.190138920454545,0.0552010150949334,0.0954983931815214,0.15597038795836,0.0749116582597983,0.127347438560147,0.0295319414019716,0.174675174825175,0.0215487786842395,,,
2158,51.2054,82.529083849647,192.189367832168,118.361697294157,141.96312423283,68.5133998473414,53.1571307587579,36.3290748109139,73.4353015397039,80.582767360501,50.2405256997341,39.7645283502787,18.0179940821287,40.583456123587,21.8899194654775,10.6182017678232
2159,1.1715,0.226914423076923,0.38088125,0.629057692307692,0.39955,0.740556043956044,0.5282776777453,0.899323907342657,1.83395019959121,1.82699745130277,0.714333029745989,1.9193032967033,1.33481875,0.604860788824354,0.360748428265181,0.32437086816692
2162,438.790614204545,827.973282930308,1446.74034807692,655.130715484516,879.766922473304,477.038161942773,254.470936005439,202.933481314123,609.934880360913,506.283098159612,545.75625004049,420.048921385066,212.609583574784,353.647895504011,356.324067042489,93.6564656425869
2165,0.0614704545454545,0.505444842657343,5.44339248251748,0.449090909090909,6e-04,0.621538461538462,0.775473468057367,0.004125,0.245970187165775,0.0278377923800338,0.680834729219887,0.403013161838162,0.962920673076923,0.538902319094501,0.427870494355077,0.00554425355035795
2173,0.7009625,2.00621670845077,3.01648570804196,1.19136842673456,0.854182872807557,0.865277232911245,0.631106353604023,1.47238139755916,0.507666801183127,1.17388740408078,0.10465146287536,0.275432421610647,0.650041972040057,2.2156329311535,2.827401795931,1.0093542672377
2182,35.4789590909091,201.363965438953,128.266183347902,66.4537680132368,81.6921142390504,52.7955718120282,16.5322247671621,26.5875862026626,76.5408412087007,78.9256080728577,41.7025248487895,38.5207738636364,27.7062301569749,57.0331351595126,65.7232104296067,11.6193174557207
2183,0.6215,0.110344286584569,0.198289903846154,0.461319230769231,0.451536538461539,0.479768441591187,0.12114375,0.483579020299561,0.664660024320321,0.130240734265734,0.0713249434596476,0.0866392857142857,0.1035609375,0.819109068699727,0.144797297297297,0.0657517857142857
2184,0.40529375,0.240744695478158,2.79650380244755,1.64180954045954,0.263553041010195,0.421470238672702,0.490580614373646,0.188069387038646,0.212883916109787,0.155958705989313,0.321232330213382,0.0970202853598015,0.121385649038462,0.542150155522137,0.158598965000905,0.0417443837314973
2191,0.0801,0.480466922936501,0.1063,0.0145,0.525739285714286,0.0639247052869731,0.353113152472528,0.20684652308294,0.282837511985574,0.218602275640283,0.335431440509054,0.0107,0.751652877230297,0.705672086714249,0.714450704371021,0.137621863672186
2203,1.34939375,1.57574974577155,1.60416442307692,3.8049726479166,4.74173767565034,5.21449835948007,0.94232786797815,3.64878199845754,3.16351113147327,11.1597365494928,5.29517231433228,6.39570908889498,2.46208395033679,5.21905594026665,11.5264233972113,10.0152619753094
2207,0.4115,47.5619153846154,21.6396,4.1539,2.66843461538462,1.7652,1.41869680299539,1.45788636363636,1.35164590281043,2.70679452735976,2.10170802139037,1.69105454545455,0.806925,2.43906558214818,0.160216346153846,0.255511389203775
2210,4.05,3.936,,79.1540307692308,138.520305309149,147.378522870879,38.1825897224734,182.725126467584,48.4799359195077,53.8581029806076,118.244286788867,47.4302573863636,76.0968854223901,138.621525011052,94.6468587944328,42.6956035656159
2217,0.0074,0.0042,,8.31877692307692,1.0408,15.2674708791209,3.94278562239769,2.38307147589253,7.33122978017197,7.78325318539626,2.93848177640374,16.0417462787213,5.21491666666667,3.15881812735512,2.08998034317629,1.04595498716304
2218,2.4855,21.4177899614653,16.05,53.3202461538462,168.384504773352,96.3678761301199,41.9295960050679,45.5796587952836,65.3790292999106,86.6906758381441,48.2243069738359,58.7856118381619,24.9476437034017,30.7065104107754,27.5388320097934,7.76960281082479
2219,0.1942,0.100846658763611,0.652299912587413,0.222497027972028,0.527210454545455,0.107390909090909,0.0764049378718683,0.0585305183946488,0.0218651515151515,0.0014,0.0350585297070636,0.141631818181818,0.261484077162757,0.23070364481409,0.177664153601654,
2255,0.00924375,0.142986017145505,0.03285,1.6115455944056,0.0675991071428571,0.232026427384962,0.471760956080112,0.233469977941982,0.1675,0.0104,0.144767954775059,0.0302,0.152916946956645,0.261372103311151,0.0443961241017162,0.0484022002964521
2670,0.0369,0.0108718808138509,0.0323019230769231,1.38835584415584,0.120194772727273,0.00207613636363636,0.134525263648781,0.307695739555215,0.0132542372881356,0.0280553073352895,0.0852527098999122,0.0199307692307692,0.0264609142369727,0.0689183790474232,0.193292573130808,0.000578624078624078
3101,0.00441875,0.0185161878020112,0.117562412587413,0.0211751184299572,0.0518123426573427,0.0463061097448448,0.0181340286831812,0.0259383969703185,0.0070364846947599,0.0212028983403343,0.0474857510058413,0.0158479020979021,0.0378109681102796,0.0131488693011874,0.00627127698102274,0.0057672983218407
3219,0.0068,0.0231194414019715,0.0111589160839161,0.0815229545454546,0.0382456331719128,0.0081425,0.0260526634382567,0.0662594216023695,0.0069,0.0166167434384481,0.00612018528660095,0.00843496503496504,0.0251214897501692,0.0428032592567279,0.0337123081828964,0.00332001879699248
3418,0.634,0.867825397547658,0.629434615384615,1.48705962807354,1.92243079545455,1.02848780594406,0.596707330827068,0.840117747914736,2.17654329709096,1.92160937060613,0.415967876623531,2.12237556818182,0.775696252185315,1.29670881807448,2.29903146491159,1.58269139554174
3516,0.8539,0.8356375,4.04201534090909,0.33635,0.743250262326657,1.46207084276018,0.418610538545653,0.73135769711833,2.38555873732644,0.314551494626147,1.11711785778097,0.0158545454545455,0.310299264705882,0.711382986430832,10.861446699397,0.194395550754221
3520,0.5232,0.853084615384615,0.0161,3.12315384615385,1.47458299595142,1.14686122262105,0.629836311952127,0.171719711538461,,3.9265938247144,3.24569545454546,2.48617614482292,0.909962146663577,0.336699411215296,,0.0877349904194166
3715,0.0167375,0.0337703730317794,0.3550375,0.322553461538462,0.388801170395869,0.118811107132893,0.187421735816125,0.217760038302804,0.1235375,0.979768497803293,0.631840360155179,0.659668150599401,0.209539669427622,0.179567431526695,0.0637357527419036,0.16068914110807
3908,4e-04,0.0174062864219114,0.004725,0.178326122264832,0.00456778846153846,0.0435224256292906,0.0222205026404304,0.0208487217659684,0.00159078947368421,0.0349186066126856,0.0161903531960008,0.0095,0.00471914602534562,0.0112604518418904,0.00804107396870556,0.00252570346320346
4025,0.0746,1.9363307102536,0.719609615384615,1.14881548076923,1.99804851863774,1.28737019230769,0.870076204281891,0.936428302332913,1.39996775621854,6.1642786059683,4.08223356881326,3.9080667957043,4.23756510115019,4.9037534073318,12.7521036528639,3.52055948362908
4121,0.004,0.1058,0.341,0.0291,0.0552006803338171,0.7131,0.399009591990159,0.238926930155564,0.536988174582824,1.03844776029056,0.790717857443761,0.220866477272727,0.09315,0.0803728368017524,0.104294775778986,0.0895500683527
4167,0.8017,1.90066433566434,3.24300454545454,3.93705807942058,0.2617,3.09854868025996,1.43872167207792,2.54864270232506,0.912551518687561,1.50833822266332,3.68868547872731,1.53663618881119,0.795052450700783,9.26621377846668,5.27389894944511,0.179085095314043
4227,0.015932967032967,0.149735713814487,0.168517744755245,0.159373726273726,0.147695538053311,0.186081611692483,0.170398568621636,0.17597870533246,0.0575766506534201,0.301077049910321,0.106824339180743,0.0503727272727273,0.137977615950226,0.0687681381224375,0.272328026141715,2.00730720591884
4526,0.0128,0.157342043357836,0.248467788461539,0.206473927685218,0.381144826788644,0.244144101016757,0.0793351591293444,0.165282662658457,0.259790444536177,0.115437520965908,0.0442502621864927,0.113525524475524,0.143330364762356,0.104031084846552,0.160529909990125,0.0516363360871585
4557,0.407088461538462,0.611816861542016,0.5081625,0.589808098353259,0.900127426539654,0.603333975045191,0.698965591560339,0.790949633251112,0.937532972590839,0.845928896371224,0.66939096051059,0.932742794705295,0.499553125,0.444666747686263,0.456464501350801,0.187783422940793
4753,29.5031545454546,41.2457464385809,14.829229763986,24.6699612258709,34.9738969062188,1.24055408629423,9.50214086881562,0.189801630434783,1.69507207792208,276.01095802029,174.39027870376,227.683036688312,590.289311264707,111.219598972748,22.8786685874392,20.2986645791422
4904,1.54435454545455,2.29293642073336,3.54065288461538,2.21829370629371,2.47626481362388,2.0989904817277,1.16965990873533,1.59670295389069,3.39840211921044,2.91516355389708,3.10071633013042,5.00005786713287,2.94049948131703,6.83447249426617,2.57013821320373,1.66443390082975
4950,0.186,0.549572833365873,0.249434593531469,0.630220954045954,0.692581705426926,0.247638687938355,0.282097006408182,12.8643292299417,0.524495141619305,0.208331438229215,0.0921522968809053,0.386293856143856,0.620663223704774,0.196453654371222,2.11116214493257,0.560685628651204
5002,0.4847,3.1308,0.452351442307692,0.299319230769231,0.618066346153846,0.560446987951807,0.372949888492418,0.394380431823448,0.789295725506111,1.17718146345071,0.644766811497326,0.461437012987013,0.780707296380091,1.48563369878837,0.616742495890071,1.36943517982992
5003,0.000596590909090909,0.0141705860322216,,0.0229914335664336,0.07369375,0.0301430469852298,0.0351775391134289,0.0393305480312936,0.0318004743833017,0.0930563068515827,0.170656363862542,0.192552278971029,0.195159128891941,0.342483191510707,0.171707650938188,0.0451065842914908
5007,0.01645,0.0676160547785548,0.04598125,0.121336225870903,0.0767987310359132,0.0494761302745242,0.104694365810073,0.107646338849909,0.00639090909090909,0.0831670545794719,0.0953577009484975,0.123268356643357,0.0605924653471528,0.0717855409678685,0.101773428925992,0.0174051987476218
5900,0.003,0.0328701878330754,0.0988009615384615,0.0754996447101286,0.0743165375302664,0.030666520979021,0.0288526083639411,0.083942201405816,0.00465996503496504,0.147758772393696,,0.0033,,,,0.00118421052631579
5961,0.0018,1.24318553039702,0.017775,0.0372548951048951,0.0133243685368637,0.0283038992869875,0.0756953712617023,0.0299165515474778,0.0110551830631543,0.0492927169769567,0.0930462124756411,0.0629078671328671,0.0271260744552058,0.0209884591002952,0.0353622481082095,0.00719898173565411
6771,0.0239,0.00991538461538462,0.0146,0.0179702797202797,0.012125,0.0142106605351171,0.02926875,0.0109430143651529,0.0264205882352941,0.057763194567917,0.0243597233806926,0.0203340909090909,0.0194231971153846,0.0282402942561371,0.0173650845712256,0.00596900481838399
6791,0.184675,0.567648750774044,0.374289903846154,0.542667382617383,0.661370322961942,0.277946817513933,0.172833735332464,0.38482839678208,0.405687290473226,0.537329679026622,0.337081686608769,0.437932704795205,0.817335194140537,0.833641992047738,0.916122466033173,0.16246506824175
6972,0.04029375,0.00367560038645565,0.00479493006993007,0.00319230769230769,0.00584315514993481,0.00219648279352227,0.0515737551923946,0.00307274247491639,0.00322674880763116,0.092835829987138,0.0972637837505828,0.0356881868131868,0.0350438559322034,0.000441176470588235,0.0547056338028169,0.11033925177505
7211,0.00395568181818182,0.193479415942745,0.0297581730769231,0.0562369318181818,0.125617,0.0123676136363636,0.0588999848668281,0.106654930321831,0.0164961664841183,0.0612794654966677,0.0230494682349307,0.0948363636363636,0.00812045454545455,0.0207245693889539,0.00536523251292087,0.0124785910576352
7750,0.0049,0.0385875105983298,0.0134399038461538,0.0392407342657343,0.0416764726199871,0.0155210103913185,0.0719340511896604,0.0137603308376406,0.00103246753246753,0.0055813150281683,0.00310152473607968,0.0133311688311688,0.00144375,0.00584290982850821,0.000964073829927489,0.00180803571428571
8033,0.0104323812,0.09011875,,0.112395892571329,0.113760551505147,0.0518341346153846,0.0450520387605932,0.135442254849301,0.0502226525,0.318582119535165,0.101079384239335,0.117180952488761,0.0146996516964286,0.00178670692771084,0.0208415690081368,0.132084855047455
8057,62.6977345781943,173.004906647041,54.4689645336928,98.9279006089327,70.3381689100643,70.5732556009694,119.124847038539,72.292948648643,37.7462966917848,69.6596655635753,51.4955255416421,36.7158997757515,52.02622425051,80.2480069175949,30.5574414775029,9.11619509457947
8075,0.171407282,0.526924058799292,0.5729408798,0.411182719193506,1.34630479345017,0.33104961756993,0.35074018926948,1.26075434958259,0.0977589686590909,0.238283802353475,0.500998345380877,1.38923050876486,0.139109014447115,0.113723932281016,0.0712601134137287,0.00536035714285714
8077,4.21503613215511,17.0660353578582,27.6139829244578,15.6583350946423,14.6627867064104,15.9070437616136,9.00633970297398,1.76675803743683,1.53961259905521,0.920233197965451,2.81546693842803,2.46057023954545,2.68288315608906,2.23071377897327,13.7355978414711,0.0161189732142857
8085,0.3441876065,0.33719802410173,0.360669136880639,1.03457090184712,3.66248297369643,0.0834203533308797,1.23010828626617,0.563848448942865,0.330573895627326,0.0946120509672812,0.548594991653824,0.849439598795105,1.27385387866522,0.403347099424158,0.430586679333469,0.0579261079411761
8087,0.0285958281,0.309762380045512,0.4818292979,0.800964775013422,0.334127661700587,0.179757738196933,0.352826479772519,0.533488588314541,0.115355627754032,0.122880944903478,0.344232746251692,0.301820497270105,0.16829541586747,0.0596722714824504,0.210715894672747,0.0318643590244381
8092,2.7803302106,0.03185625,12.9251011363636,2.90961804209466,21.1569890852795,2.82255,7.67672962574788,4.48914446950726,2.15214532211163,0.717152278065982,1.15153205977052,0.734080903461538,2.44440729624931,1.16449340853377,1.15246917156863,
8093,0.608804348120536,1.01418587890165,2.25814100952338,2.82115595544766,5.57771618067355,0.965074692102624,2.09070875073613,1.32788715213049,0.651905707548363,0.648878232796066,0.948063589325776,1.45401934822203,1.10773389977643,0.705753479724701,0.28858664309255,0.182903841025196
8111,2478.9141055371,5574.55406241323,4271.26026908223,4200.32027016856,4632.85571264002,3931.11176579045,5188.98622126185,4238.64441027516,3317.20083323708,2016.76635985142,1840.98459291493,2173.53445215396,1745.75867189819,2231.59967368987,1804.995519201,445.290284566173
8112,193.401606958328,361.703895042724,597.356727516089,524.240483713939,212.798557116141,316.721968989902,240.6843233954,402.093594553814,75.8081738990482,134.835662642569,196.474503173869,94.8240033511998,242.710271784168,62.416209730889,148.625084332268,18.0042410659274
8113,0.0157,0.0992683713461538,0.0309,0.132425726196154,0.289247667,1.09084778272101,0.252547512033898,0.58929578392401,0.93930427405,0.311180761220718,0.709060224436836,0.448857940347727,0.515358679472756,0.873690343612467,0.767478152204977,0.341723136508307
8119,7.852754195,11.755359810601,0.03029544575,12.9448759625629,17.8359632655547,3.44489751254181,14.044593827725,22.663133120558,4.79717355317273,4.69331900023788,15.3255566670336,31.8307018548308,22.3930781079351,19.5558865414546,18.7749520539439,0.0464410714285714
8128,0.990873021984091,1.47235046530319,1.0292200079542,2.21038520478599,2.28283691244798,0.415297524350246,1.0141651390582,1.62450249648343,0.700676145110308,1.07227091073811,1.14029677032868,1.80489582587273,0.389493290845961,1.00241506936396,0.600897655022719,0.684908015915664
8129,0.0057,0.226172034533077,0.199536863738462,0.355084975724994,0.4216495027,0.0290788156194007,0.654955533249451,0.248207049881881,0.0708349518181818,0.273724053365458,0.364750212157298,0.247216954029371,0.133823515480769,0.0562968625100338,0.0356399948034498,0.0115029770818822
8135,0.883368873778059,4.08885645670087,2.16487365643518,3.57907640052394,4.58504738151506,2.09233674792667,3.77434369286897,3.698327151976,1.56741900431178,2.18174025308192,4.25760954388653,4.3418800014745,3.00155975461416,3.18818323574154,4.06178072577052,2.09827047642775
8138,9.50225086980625,50.5096030410358,35.7112273307201,33.8313261841532,30.6028184851254,21.7311471981792,18.9597031751035,17.6170432960298,31.2899289393243,8.99286864912266,5.66540692347226,6.56430963017203,20.8387862603107,8.99343615265092,5.84425838163499,2.53442951693781
8164,0.0551642857142857,0.405865962676798,0.247725,0.108217307692308,0.263268487394958,0.255635576923077,0.24818813559322,0.179484793986885,0.04791875,0.0531490388813743,0.0691320233112624,0.060273439060939,0.0378658925248139,0.0281002776458127,0.0288089046050425,0.0032
8178,0.11941875,0.20785485016991,0.413699300699301,0.14004936132416,0.114583060477658,0.0628190340909091,0.104024254366023,0.19439592186982,0.253108609927196,0.0932929530944619,0.122122439094341,0.134525174825175,0.0785578125,0.263004415513774,0.294671274829111,0.0813921588929952
8196,31.9413521103896,55.7801159516438,41.3301182692308,46.8546533442364,80.722447053071,51.1329684697922,48.9402448282479,45.7536269755605,61.9961065157116,68.6741397554026,46.2908095005663,55.9737338661339,36.6090869078479,47.6133080143631,82.1321813644317,41.0807977989509
8213,130.542081818182,507.524610825254,383.025393531469,402.021197807032,377.635141141811,219.66428395658,196.059308575791,157.147038321299,383.275445126197,183.808088410944,116.535838951736,125.118040670015,97.177203507617,226.722400651377,584.407190158339,31.9380064346965
8217,1.2949,5.3715545486477,0.428588461538462,6.2541215034965,7.72646490384615,1.92246298076923,4.35656319911432,4.88504560002503,2.78819471744472,0.974812315791553,1.55257088176473,2.27862814685315,2.56299674714723,4.50885836959566,4.66841996345456,
8219,3.043,3.79621860123828,4.40922980769231,9.06864606603074,10.209824497673,2.6268369624338,8.1139214159355,7.35571347881196,2.85370156374428,2.50809055362677,4.22983973980063,2.59914755244755,9.22967440730743,9.11454001339008,9.07981452554311,0.481593164373573
8363,20.9480125,64.1798981657253,64.060811451049,55.9721286431311,31.5499066784221,31.7861001716064,34.6086234463555,39.0236097151308,27.1888685083425,29.3533331591862,35.0439659878286,21.0659734789404,14.6680864068929,45.5531389171516,38.9715895348353,11.349188139795
8378,116.378360227273,388.892484924045,437.353318269231,271.003886893751,280.5282385484,321.513866240568,130.358668076309,125.342348524678,193.099322885929,450.175081036281,353.10547543389,205.475926898102,202.52340357022,314.830985846675,490.493588681784,177.449539524968
8407,55.7812753933566,305.357245342706,343.541373513986,163.782246928072,155.447113001376,217.687241079892,99.2327985276489,48.2449012881816,92.4590266574648,197.409139057582,192.996704089896,136.033495937127,49.8297229267372,189.006837805132,482.722320777342,28.9309364679749
8410,0.1412,0.08320816100281,0.241924300699301,0.878490528221779,0.665766608391609,0.13532281106391,0.489851847375788,0.230039481697461,0.336886961722488,0.42690267914977,0.188107193724344,0.0743993006993008,0.0855865666113547,0.358342392884853,0.102212130515032,0.0534584997740885
8411,0.03125,0.0363030276613257,0.152677447552448,0.0542026634655667,0.0566528409090909,0.0252595648154946,0.15764043040293,0.065029310754647,0.0155659090909091,0.0870395852998108,0.153550492178504,0.0187,0.0301357657967033,0.0572408060490991,0.0395075489203779,0.0202405641233766
8429,0.416457792207792,0.76645951943854,1.41853125,0.637262779156328,1.64363198529412,0.720041215034965,0.824668318122556,0.645364807246721,1.25661157384226,2.00255086919947,1.29560901884971,1.33329172077922,0.65538217690678,0.764085640967348,2.54540817210474,1.03329554885024
8431,7.56954545454546,20.484207076993,28.17615,18.1701688311688,27.0159518357661,14.7675926656983,14.8865851373911,13.3817072863299,19.8590231893857,30.3685284034449,14.0550824469549,26.9293681318681,15.1593719729537,13.5165349192002,11.2310156262805,11.0875913869746
8433,0.0812,0.458497494939271,0.2619,0.197451573426573,0.3379,0.417427482778416,0.0685544328552803,0.0581983374159503,0.505418064722163,0.63321460263519,0.72467043311288,0.60063612012987,0.285191240221643,0.341732040953017,1.03376493761243,0.111089800612478
8447,2.2088,1.91635101695649,4.62208068181818,5.07078821533305,2.24895018530997,2.73016529530252,3.35684387620314,4.15277018095006,1.83494378761352,3.00102282687952,3.26562446247093,1.41859003496504,0.463261582167832,3.21149468483571,4.46076074046842,0.174448719336219
8483,0.437,0.874154876591876,1.49191053321678,0.534648781661887,1.02028762802439,0.412974029234176,0.600526522990967,0.559550634030272,0.635776138835507,0.737638367869152,0.831586924494072,0.871387937062937,0.329095968536487,0.78874189261527,0.379082878687308,0.34410783810893
8513,0.0857602272727273,0.164964361020498,0.195125,0.0429054364989849,0.0504125,0.0180081635755549,0.0162341117216117,0.0632149574080382,,,,,0.0295667108050848,0.092205738602319,0.0783898259974522,0.00484162364005163
8520,0.370293181818182,0.87040651769614,0.07863125,0.126442307692308,2.28292705882353,0.182855769230769,1.68700625,0.850680140772086,1.7655,6.97299235200284,0.973964519109069,2.72869090909091,6.80215074275523,5.15302302711463,11.3894825004703,21.0901184530376
8540,15.6856,44.8825622377622,88.2191210227273,19.4872112887113,70.8103387894034,90.8094086975524,51.1271475961539,68.635881857339,144.681330366631,63.4794865478534,84.0328394604642,30.012533041958,49.4474437504107,107.92912242172,79.2412663588226,42.8235116398438
8553,17.42416875,395.144329843915,106.4149,66.3431884840966,57.5818125949263,31.5656013923789,14.2988886255,8.92296685235758,15.6677490742479,50.4397366495602,94.4613351650904,71.7465755907399,16.8084085343658,167.847836489603,115.268706860062,9.0831232521164
8575,0.2152,0.22332635393045,0.1209,0.108909050949051,0.10597197236592,0.0382569198464579,1.0975058367786,0.734337761825401,0.0222036343214658,0.180379381182423,0.302185890409362,0.239651223776224,0.0153386160714286,0.0828051885508145,0.0480833131415098,0.0131337099274599
8583,0.7531375,7.06073112423565,7.90083758741258,2.31581060657085,1.82522370754756,1.6561381018084,6.17953729464856,4.13840895923893,0.813283899948928,3.66483021465899,0.578106082929816,1.41239420579421,0.711012807603994,15.0120319318569,4.35413001197012,0.588875187549042
8585,,0.00075,0.007,0.00596875,0.000426136363636364,0.00993374125874126,0.0287612163761751,0.0114788461538462,0.00976890186426477,0.0214673484354628,0.0224046261923872,0.0314534965034965,0.0430929976273726,0.00595132884479093,0.0130736563741961,0.0227697368421053
8680,4.10250192307692,2.94121124074037,6.33124191433566,3.98877272948825,4.7850238277972,3.19020128558483,0.847980407876866,1.8539174521732,8.59144781833838,6.57844660225099,0.0402873522375457,2.47569090909091,0.0376657247413603,0.0342589805052511,0.172144118892281,0.0108539315995537
8742,,0.0595649038461539,,0.0422781818181818,5.06164511312217,4.53035792234342,1.84003313846385,0.851244230769231,,4.50128645126407,6.529515107582,8.05099769605394,6.11832586496154,8.0482706045214,5.37720466875058,3.18934955880689
8778,0.0281,0.257733976289775,0.132681818181818,0.131252237762238,0.196485664335664,0.125789613853124,0.311194541855204,0.146886433946488,0.176661636017755,0.190013636363636,0.1901499591138,0.236981818181818,0.172304815840939,0.181239331305015,0.153316546618577,0.2254715197847
8792,11.8569,4.79491688596491,56.0583050699301,28.9853282467532,11.5945676573427,27.4958336462451,7.93292530964798,15.9764759780794,7.72560527734977,6.91051000802476,11.471345156699,0.251652972027972,11.128491674656,34.2979671238383,17.8984480989587,4.13473773144086
9965,,,,,,,,,0.597777829109678,1.80274891808026,1.90693614256716,0.450284515484516,0.01646875,0.324399260219223,,0.0853225665887593
9966,,,,,,,,,1.16091167011513,2.46152183686387,2.32800215734572,1.38053591408591,0.784600568181818,0.623620333909304,,0.744096282261279
9970,1.7424,0.0181730769230769,,0.327469230769231,2.93464772727273,3.5537927089027,0.856240136476427,0.748554689267715,2.74703554128685,5.74008275544672,5.68456167419064,,0.03740625,,1.7127376109556,
9995,104.663730461414,158.562301568633,135.415208238636,77.1059106652219,100.256169001894,92.718680640811,110.717487077636,110.300466956297,87.7174463461563,100.402150848915,90.7511508938975,81.6636375073717,77.9098971005021,78.5551096940289,62.8916724503763,29.7676462461798
